{
  "images" : [
    {
      "resizing" : {
        "mode" : "9-part",
        "center" : {
          "mode" : "fill",
          "width" : 1,
          "height" : 1
        },
        "capInsets" : {
          "bottom" : 21,
          "top" : 21,
          "right" : 4,
          "left" : 4
        }
      },
      "idiom" : "universal",
      "filename" : "common.button.highlight.png",
      "scale" : "1x"
    },
    {
      "resizing" : {
        "mode" : "9-part",
        "center" : {
          "mode" : "fill",
          "width" : 1,
          "height" : 1
        },
        "capInsets" : {
          "bottom" : 43,
          "top" : 42,
          "right" : 8,
          "left" : 8
        }
      },
      "idiom" : "universal",
      "filename" : "common.button.highlight@2x.png",
      "scale" : "2x"
    },
    {
      "idiom" : "universal",
      "scale" : "3x"
    }
  ],
  "info" : {
    "version" : 1,
    "author" : "xcode"
  }
}